{
    "stepsSideSplitSquats": "1. قف منتصبًا وخذ خطوة جانبية واسعة ، أكبر بقليل من عرض الكتفين.\n2. اثنِ ركبة واحدة حتى يصبح فخذك موازيًا للأرض. يجب أن تكون الركبة المنحنية على نفس الخط مع القدم.\n3. ادفع للخلف إلى وضع البداية وكرر العملية.",
    "exerciseSideSplitSquatsRight": "انقسام القرفصاء اليمين",
    "exerciseSideSplitSquatsLeft": "انقسام القرفصاء اليسار",
    "stepsSidePlank": "1. الاستلقاء على الجانب الخاص بك، مع الكوع السفلي الخاص بك في الزاوية اليمنى، الذراع ممدودة\n2. رفع الحوض الخاص بك من على الأرض عن طريق رفع الكتف السفلي الخاص بك حتى، والحفاظ على الساعد على الأرض. يجب أن يكون رأسك وحوضك وقدميك في خط مستقيم\n3. الثبات على هذه الوضعية",
    "exerciseSidePlankRight": "اللوح الجانبي الأيمن",
    "exerciseSidePlankLeft": "اللوح الجانبي الأيسر",
    "stepsPushupRotations": "1. قم بتمرين الضغط القياسي:\n1.a الاستلقاء على بطنك\n1.b ضع يديك بالقرب من أذنيك\n1.c استخدم ذراعيك لرفع معدتك حتى تصبح الذراعين مستقيمين ، مع الحفاظ على استقامة الظهر\n1.d ثني الذراعين حتى يلمس الصدر الأرض تقريبًا ، مع التأكد من أن الظهر مستقيم\n1.e ارفع معدتك مرة أخرى ، والعودة إلى الخطوة 3\n2. قم بتدوير جسمك إلى الجانب بحيث يكون الظهر مستقيمًا ، ويتم تمديد اليد السفلية التي تدعم الجسم بالكامل ، ولا تلمس الأرض سوى اليد السفلية والقدم\n3. كرر مع تغيير الجوانب في الخطوة 2 في كل مرة",
    "exercisePushupRotations": "تمرين الضغط المتناوب",
    "stepsSplitSquats": "1. الوقوف بظهر مستو\n2. اتخاذ خطوة كبيرة إلى الأمام بساقك اليسرى\n3. جلب الحوض الخاص بك إلى أسفل حتى تلامس الاض بركبتك اليمنى\n4. جلب الحوض الخاص بك مرة أخرى\n5. كرر الخطوة 3.",
    "exerciseSplitSquatsRight": "تقسيم القرفصاء اليمين",
    "exerciseSplitSquatsLeft": "انقسام القرفصاء اليسار",
    "stepsLunges": "1. الوقوف ب ظهر مستو\n2. اتخاذ خطوة كبيرة إلى الأمام ب ساقك اليسرى\n3. جلب الحوض الخاص بك إلى أسفل حتى تلامس الارض بركبتك اليمنى\n4. جلب الحوض الخاص بك مرة أخرى\n5. العودة إلى وضعية الوقوف بالتراجع\n6. كرر، مع التبديل الساقين في كل مرة",
    "stepsHighKnees": "1. الجري في المكان، وضع الركبتين عاليا كما هو مريح وتبديل بين الساقين بوتيرة سريعة",
    "exerciseHighKnees": "الركبتين العالية",
    "stepsPlank": "وضع البداية:\n1. ابدأ بيديك وساقيك على الارض.\nيجب ثني الذراعين بزاوية قائمة مع وضع الكتفين فوق المرفقين.\nيجب أن يكون الظهر مستقيمًا والجسم كله في خط مستقيم.\n\nخطوات:\n1. الثبوت على هذا الوضع.",
    "exercisePlank": "لوح الساعد",
    "exerciseChairDips": "تراجع كرسي",
    "stepsSquats": "1. الوقوف مع مباعدة قدميه عرض الكتفين\n2. حرك الوركين للخلف وثني الركبتين والوركين لخفض الجذع\n3. كرر التمرين",
    "exerciseSquats": "القرفصاء",
    "exerciseStepups": "صعود-الكرسي",
    "stepsStepups": "1. الوقوف في مواجهة كرسي\n2. اصعد على الكرسي\n3. انزل عن الكرسي\n4. كرر التمرين",
    "stepsAbCrunches": "1. الاستلقاء على الأرض مع ثني الركبتين.\n2. لف الكتفين نحو الحوض. يمكن أن تكون اليدين خلف العنق أو بجانبه أو متقاطعتين فوق الصدر.\n3. كرر التمرين",
    "stepsPushups": "وضع البداية:\nادخل إلى وضع بدء الدفع ، بحيث تلامس يديك وأصابع قدمك الأرض والظهر ، وذراعيك وساقيك مستقيمة. للوصول إلى هذا الوضع ، يمكنك الاستلقاء على بطنك ، ووضع يديك في مواجهة رأسك ، ورفع ذراعيك لأعلى حتى تستقيم.\n\nخطوات:\n1. انحنى عند المرفقين حتى يلمس صدرك الأرض تقريبًا ، وتأكد من أن ظهرك مستقيم في جميع الأوقات.\n2. استخدم ذراعيك لرفع نفسك احتياطيًا إلى وضع البداية.\n3. كرر.",
    "exercisePushups": "تمرين الضغط",
    "stepsWallSit": "1. استند على الحائط ، ووجهك للأمام مع تثبيت القدمين بإحكام على الأرض ، والكتفين متباعدان عن بعضهما البعض ، وعلى بُعد حوالي قدمين من الحائط\n2. انزلق على الحائط ، مع الاستمرار في الضغط على الظهر ، حتى تصبح الأرجل في الزاوية اليمنى. يجب أن تكون الركبتان فوق الكاحلين مباشرة\nألم العضلة الرباعية طبيعي ، توقف إذا شعرت بألم في الركبة أو الرضفة",
    "exerciseWallSit": "الجلوس على الحائط",
    "stepsJumpingJacks": "1. الوقوف مع القدمين والذراعين على الجانبين\n2. القفز إلى وضع مع تمديد الساقين على نطاق واسع وتلامس اليدين فوق الرأس\n3. كرر التمرين",
    "exerciseJumpingJacks": "قفز الرافعات",
    "workoutLeg": "تمرين الساق",
    "workoutScientific7Minute": "تمرين علمي لمدة 7 دقائق",
    "exerciseLunges": "الطعنات",
    "exerciseAbCrunches": "الطحن",
    "stepsPikePushups": "موقف التحديق:\nالكلب المتجه للأسفل: يجب أن يتخذ جسمك شكل V ، مع ظهر مستقيم وذراعان وأرجل. يجب أن يكون الوركين في الهواء.\nيمكنك الوصول إلى هذا الوضع عن طريق إرجاع يديك للخلف من لوح مرتفع.\n\nالخطوات:\n1- اثنِ مرفقيك إلى الجانب ، وحافظ على استقامة ظهرك ورجليك وحرك رأسك أقرب إلى الأرض.\n2. افرد ذراعيك وادفع وركيك للخلف وحافظ على استقامة ظهرك ورجليك.\n3. كرر.",
    "exercisePikePushups": "الدراجة الضغط",
    "stepsFloorDips": "وضع البداية:\nاجلس وذراعيك خلفك ، داعمًا ظهرك.\nيجب أن تشير أصابعك إلى الأمام.\nيجب أن تكون ركبتيك مثنيتين ، وقدميك معًا.\n\nالخطوات:\n1. ارفع وركيك عن الأرض مع فرد ذراعيك.\n2. اثنِ مرفقيك ، وجلب الوركين إلى أسفل.\n3. فرد ذراعيك ، والعودة إلى الوضع السابق.\n4. كرر الخطوتين 2 و 3.\n\nتلاحظ:\nتعتمد صعوبة التمرين على مدى ارتفاع الوركين.",
    "exerciseFloorDips": "انخفاضات أرضية",
    "stepsLegRaises": "وضع البداية:\nاستلقِ على ظهرك وقدميك معًا وذراعيك بجانبك.\n\nالخطوات:\n1. اثني ركبتيك ، ثم افردهما للإشارة إلى الأعلى بشكل مستقيم.\n2. حافظ على استقامة ساقيك ، وأنزلهما معًا دون لمس الأرض. كلما انخفضت ، زادت كثافة التمرين.\n3. ارفع كلا الساقين معًا للإشارة إلى الأعلى مرة أخرى.\n4. كرر من الخطوة 2.",
    "exerciseLegRaises": "رفع الساق",
    "stepsReverseLunges": "وضع البداية:\nالوقوف بشكل مستقيم ، والقدمين متباعدتين.\n\nالخطوات:\n1. خطوة للخلف بساق واحدة حتى تتمكن من الانحناء بشكل مريح بزاوية 90 درجة.\n2. ثني الركبتين ببطء لتشكيل زاوية 90 درجة.\n3. العودة إلى وضع البداية.\n4. كرر ، بالتناوب على الساقين.",
    "exerciseReverseLunges": "الطعنات العكسية",
    "stepsSquatThrusts": "وضع البداية:\nابدأ في وضع اللوح الخشبي المرتفع: الظهر والذراعين والساقين مستقيمين واليدين متباعدتين بعرض الكتفين.\n\nالخطوات:\n1. اقفز قدميك للأمام بين ذراعيك ، مع الحفاظ على ظهرك مسطحًا.\n2. إبقاء يديك على الأرض ، واقفز رجليك إلى الوراء في وضع اللوح الخشبي العالي.\n3. كرر.",
    "exerciseSquatThrusts": "دفعات القرفصاء",
    "stepsNoPushupBurpees": "وضع البداية:\nالوقوف بشكل مستقيم ، والقدمين متباعدتين.\n\nالخطوات:\n1. اجلس منخفضًا وادعم نفسك على الأرض بيديك بين الركبتين وأمام قدميك ، وظهرك مستقيم.\n2. إبقاء يديك على الأرض ، قفز ساقيك إلى الوراء في وضع اللوح الخشبي العالي.\n3. اقفز قدميك للأمام للعودة إلى وضعية القرفصاء.\n4. القفز.\n5. كرر.",
    "exerciseNoPushupBurpees": "لا push-up burpees",
    "steps4countBurpees": "وضع البداية:\nالوقوف بشكل مستقيم ، والقدمين متباعدتين.\n\nالخطوات:\n1. اجلس منخفضًا وادعم نفسك على الأرض بيديك بين الركبتين وأمام قدميك ، وظهرك مستقيم.\n2. إبقاء يديك على الأرض ، قفز ساقيك إلى الوراء في وضع اللوح الخشبي العالي.\n3. اقفز قدميك للأمام للعودة إلى وضعية القرفصاء.\n4. كرر.",
    "exercise4countBurpees": "4-العد burpees",
    "stepsPushupBurpees": "وضع البداية:\nالوقوف بشكل مستقيم ، والقدمين متباعدتين.\n\nالخطوات:\n1. اجلس منخفضًا وادعم نفسك على الأرض بيديك بين الركبتين وأمام قدميك ، وظهرك مستقيم.\n2. إبقاء يديك على الأرض ، قفز ساقيك إلى الوراء في وضع اللوح الخشبي العالي.\n3. أداء تمرين الضغط.\n4. اقفز قدميك للأمام للعودة إلى وضع القرفصاء.\n5. كرر.",
    "exercisePushupBurpees": "الدفع burpees",
    "stepsMountainClimbers": "وضع البداية:\nابدأ في وضع الدفع المستقيم ، أو اللوح الخشبي المرتفع.\nيجب أن تكون اليدين تحت كتفيك مباشرة.\nحافظ على رأسك في خط مستقيم مع ظهرك ، مواجهًا للأرض.\nيجب أن تكون القدمان متباعدتين بعرض الورك.\n\nالخطوات:\n1. حرك ركبة واحدة باتجاه مركز جسمك ، باتجاه مرفقيك ، مع إبقاء الساق الأخرى ممتدة.\n2. في حركة القفز السريع ، افرد الرجل المنحنية واسحب الركبة الأخرى باتجاه جسمك.\n3. استمر في تكرار الخطوة 2 ، بالتناوب بين الأرجل.\n\nملاحظة:\nخلال التمرين ، يجب أن يظل ظهرك مستقيمًا قدر الإمكان - تجنب حدوث حدبة أو تراجع في الظهر.",
    "exerciseMountainClimbers": "متسلقو الجبال",
    "stepsArmCircles": "1. قف منتصبًا وظهرك مستقيمًا.\n2. اجلب ذراعيك للأمام ، وارفعهما فوق رأسك ، ثم استمر في الحركة خلف ظهرك ولأسفل إلى الوضع الأولي.\n3. استمر في تحريك ذراعيك كما هو موضح في الخطوة 2.",
    "exerciseArmCircles": "دوائر الذراع",
    "stepsJumpRopeBasic": "هذا التمرين يتطلب حبل القفز. تأكد من تعديل طول الحبل إلى طولك. طريقة واحدة للتحقق هو الامساك على كل المقابض بيد واحدة والوقوف على منتصف الحبل معلقة على الأرض مع قدم واحدة. إذا كان الحبل (باستثناء المقابض) يصل إلى أسفل صدرك مباشرة ، فإن طوله صحيح. حبل أقصر سيكون خطرا، كما كنت قد ضرب نفسك، وحبل أطول من شأنه أن يجعل الوضع اسوء.\n1. ضع قدميك قريبة من بعضها البعض، وثني الركبتين قليلا، والحفاظ على رأسك والجسم مستقيم، والحفاظ على المرفقين في، وفتح ذراعيك.\n2. تدور فقط المعصمين الخاص بك مع ما يكفي من القوة لجعل الحبل يدور.\n3. القفز عاليا بما يكفي لتمرير الحبل تحت قدميك.\n4. كرر من الخطوة 2.",
    "exerciseJumpRopeBasic": "القفز على الحبل: القفزات الأساسية",
    "stepsSingleLegCalfRaise": "1. قف على الأرض أو على حافة درجة لزيادة نطاق الحركة. ارفع قدمًا واحدة مع وضع الجزء العلوي على ربلة الساق.\n2. ارفع كعبيك حتى تقف على أصابع قدميك.\n3. ابق في هذا الوضع لمدة ثلاث ثوان ، ثم أنزل قدمك دون لمس الأرض بكعبك.",
    "exerciseSingleLegCalfRaiseRight": "رفع ربلة الساق اليمنى",
    "exerciseSingleLegCalfRaiseLeft": "رفع ربلة الساق اليسرى",
    "stepsKneelingKickback": "1. انزل على أربع.\n2. ادفع قدمًا واحدة للخلف حتى تمتد تمامًا ، مع التركيز على عضلات الألوية.\n3. البقاء لمدة ثانية واحدة ، ثم العودة إلى الوضع الأولي.\n4. كرر ، بالتناوب القدمين",
    "stepsPistolSquat": "1. قف على ساق واحدة وساقك الأخرى مستقيمة للأمام قليلًا.\n2. اثنِ ركبة واحدة ببطء ، وانزل إلى وضع القرفصاء وحافظ على استقامة ظهرك ورجلك الأخرى.\n3. ارفع نفسك ببطء من وضع القرفصاء ، مستقيم الركبة المثنية مع إبقاء الساق الأخرى مستقيمة.\n4. كرر",
    "stepsBulgarianSplitSquat": "1. قف منتصبًا أمام كرسي وخذ خطوة كبيرة. ضع الجزء العلوي من إحدى قدميك على الكرسي.\n2. ثني الركبة الأمامية ، مع موازنة الذراعين حتى تكاد الركبة الخلفية تلامس الأرض\n3. ادفع للخلف إلى وضع البداية وكرر العملية.",
    "exerciseBulgarianSplitSquatRight": "الرفع القرفصاء البلغارية اليمين",
    "exerciseBulgarianSplitSquatLeft": "الرفع القرفصاء البلغارية",
    "stepsChairDips": "1. اجلس على الحافة الأمامية للكرسي ، وظهرك مستقيماً ، وتمسك يديك بالحافة الأمامية\n2. استمر في الإمساك بحافة الكرسي ، وتمدد الذراعين ، وارفع مؤخرتك وامش للأمام قليلًا بحيث تكون على بعد بضع بوصات من الكرسي.\n3. أنزل جسمك ببطء ، مع الحفاظ على استقامة الظهر ، حتى تصبح الذراعين في الزاوية اليمنى\n4. ارفع جسمك مرة أخرى إلى الوضع السابق ، مد الذراعين\n5. كرر الخطوتين 3 و 4",
    "exercisePistolSquatRight": "Pistol squats اليمين",
    "exercisePistolSquatLeft": "Pistol squats اليسار",
    "exerciseKneelingKickback": "الركل الى الخلف من الركوع",
    "stepsShoulderRotation": "وضع البداية:\nاجلس أو قف وظهرك مستقيم.\n\nخطوات:\n1. ضع يديك على كتفيك وامسكها.\n2. قم بتدوير مفصلي الكتف في حركة دائرية بسرعة معتدلة لمدة 10 دورات.\n3. كرر ، ضع دائرة في الاتجاه المعاكس لمدة 10 دورات.",
    "exerciseShoulderRotation": "دوران الكتف",
    "stepsChinTuckFlexionRotation": "وضع البداية:\nاجلس أو قف وظهرك مستقيم.\n\nخطوات:\n1. ثني ذقنك ، حرك رأسك للخلف.\n2. قم بإمالة رأسك للأمام حتى تشعر بشد في مؤخرة رقبتك.\n3. قم بتدوير رأسك إلى الجانب عند الزفير. استخدم أصابعك على صدغك لتوجيه رأسك وتطبيق القليل من الضغط الزائد.\n4. استمر لمدة 5 ثوان.\n5. استدر للخلف ، مع إبقاء رأسك لأسفل.\n6. كرر من الخطوة 3 ، مع تبديل الجانبين.",
    "exerciseChinTuckFlexionRotation": "ثني الذقن مع التمدد و الدوران",
    "stepsBackLateralNeckStretch": "وضع البداية:\nاجلس منتصبًا على كرسي أو وسادة ثابتة.\n\nخطوات:\n1. أخرج الزفير وقم بإمالة رأسك للأمام ، والذقن إلى الصدر ، مع وضع اليدين خلف رأسك.\n2. إبقاء رأسك للأمام ، واستخدام عضلات الخصر للالتفاف بقدر مريح إلى اليسار.\n3. استخدم اليدين لسحب الرأس لأسفل قليلاً ، مع التحكم في التمدد.\n4. اسحب الكتفين للخلف والأسفل باستخدام عضلات ظهرك. امسك لمدة 5 ثوان.\n5. استدر للوضع الأوسط.\n6. اجلب يديك إلى جبهتك وادفع رأسك في وضع مستقيم مرة أخرى إلى الوضع الطبيعي. كرر مع الجانب الآخر.",
    "stepsFrontNeckStretch": "وضع البداية:\nاجلس أو قف وظهرك مستقيما.\n\nالخطوات:\n1. فتح الفم على نطاق واسع.\n2. إمالة الرأس ببطء مرة أخرى مع فتح الفم. إذا كنت تشعر بالحاجة إلى الدعم، شبك يديك وراء رأسك.\n3. إغلاق ببطء شديد وفتح فمك.\n4. في النهاية، والعودة ببطء إلى موقف البداية وإغلاق الفم.",
    "exerciseFrontNeckStretch": "تمتد الرقبة الأمامية",
    "stepsShoulderShrug": "وضع البداية:\nاجلس أو قف وظهرك مستقيم.\n\nخطوات:\n1. ارفع الكتفين بشكل مستقيم إلى أقصى حد ممكن واستمر لمدة 5 ثوانٍ.\n2. حرر الكتفين لأسفل إلى وضع مريح.",
    "stepsLateralNeckStretch": "وضع البداية:\nاجلس أو قف وظهرك مستقيم.\n\nخطوات:\n1. قم بإمالة رأسك إلى اليسار واستمر لمدة 8 ثوان لتمتد الجانب الأيمن من رقبتك.\n2. مع وضع يدك اليسرى أعلى رأسك ، اسحب برفق لتمتد أكثر. استمر لمدة 8 ثوان.\n3. أدر ذقنك إلى كتفك الأيسر. استمر لمدة 8 ثوان.\n4. حرر والعودة إلى وضع البداية.",
    "exerciseLateralNeckStretch": "امتداد الرقبة الجانبي",
    "stepsNeckFlexion": "وضع البداية:\nاجلس منتصبًا على كرسي أو وسادة ثابتة.\n\nخطوات:\n1. أخرج الزفير وقم بإمالة رأسك للأمام ، والذقن إلى الصدر ، مع وضع يديك خلف رأسك.\n2. استخدم اليدين لسحب الرأس إلى أسفل قليلاً. امسك لمدة 5 ثوان.\n3. اسحب الكتفين للخلف والأسفل باستخدام عضلات ظهرك. هذا يجب أن يزيد من شد الرقبة. امسك لمدة 5 ثوان.\n4. الآن ادفع رأسك بلطف للخلف ، بينما اسحبه لأسفل بيديك. وازن بين القوتين حتى لا يتحرك الرأس. استمر لمدة 5 ثوان على الأقل.\n5. اجلب أصابعك إلى جبهتك واستخدمها لتحريك رأسك برفق إلى الموضع الأصلي.",
    "exerciseNeckFlexion": "انثناء الرقبة",
    "stepsHeadTurn": "وضع البداية:\nاجلس أو قف وظهرك مستقيماً وكتفيك إلى أسفل.\n\nخطوات:\n1. اجلس أو قف بشكل مستقيم. انخفض الكتفين.\n2. أدر رأسك إلى اليسار قدر الإمكان. توقف عندما تصطدم بحاجز واستمر في ذلك لمدة 5 ثوان.\n3. العودة إلى المركز الموقف.\n4. كرر وغير الجوانب.",
    "exerciseHeadTurn": "تدوير الرأس",
    "stepsChinTuck": "وضع البداية:\nاجلس أو قف وظهرك مستقيم.\n\nخطوات:\n1. استخدم أصابعك على ذقنك لثني ذقنك ببطء ، وحرك رأسك للخلف لمحاذاة عمودك الفقري.\n2. استمر لمدة 5 ثوان.\n3. العودة إلى وضع الرأس الطبيعي وكرر.",
    "exerciseChinTuck": "تشين تاك",
    "workoutNeckShoulderStretch": "تمتد الرقبة والكتف",
    "exerciseBackLateralNeckStretch": "شد الظهر و الجزى الجانبي للرقبة",
    "exerciseShoulderShrug": "تجاهل الكتف"
}
